<svg xmlns="http://www.w3.org/2000/svg" width="17" height="17" viewBox="0 0 17 17">
    <g fill="none" fill-rule="nonzero" transform="translate(1 1)">
        <circle cx="7.5" cy="7.5" r="7.5" fill="#000" stroke="#FFF"/>
        <circle cx="7.5" cy="7.5" r="4.5" fill="#FFF"/>
    </g>
</svg>
