<svg xmlns="http://www.w3.org/2000/svg" width="17" height="17" viewBox="0 0 17 17">
    <circle cx="7.5" cy="148.5" r="7.5" fill="#000" fill-rule="nonzero" stroke="#4A4A4A" transform="translate(1 -140)"/>
</svg>
